{
    "name": "UserDetails",
    "fields": [
        {
            "fieldName": "name",
            "fieldType": "String"
        },
        {
            "fieldName": "surname",
            "fieldType": "String"
        },
        {
            "fieldName": "email",
            "fieldType": "String"
        },
        {
            "fieldName": "password",
            "fieldType": "String"
        }
    ],
    "relationships": [
        {
            "relationshipType": "many-to-one",
            "otherEntityName": "authority",
            "otherEntityRelationshipName": "userDetails",
            "relationshipName": "authority",
            "otherEntityField": "id"
        }
    ],
    "changelogDate": "20200110101440",
    "entityTableName": "user_details",
    "dto": "no",
    "pagination": "no",
    "service": "no",
    "jpaMetamodelFiltering": false,
    "fluentMethods": true,
    "clientRootFolder": "user",
    "applications": "*",
    "microserviceName": "user"
}